…
## Merge Data with meta data

``` r
#This generates 'NA' values for ~1,000,000 rows of 'O2'; possibly the temperature rows?
TargetDataMeta <- left_join(x = TargetDataWide, y= CultureCatalog, by = c("MC", "Tube"))

TargetDataMeta
```

```
## # A tibble: 178,103 × 27
##        time Filename      abs_time             Tube   ToD   Day ExpDate    MC   
##       <dbl> <chr>         <dttm>              <dbl> <dbl> <dbl> <date>     <chr>
##  1 0        20240927_Pla… 2024-09-27 06:00:00     1  6        0 2024-09-27 MCMI…
##  2 0.000278 20240927_Pla… 2024-09-27 06:00:00     1  6.00     0 2024-09-27 MCMI…
##  3 0.0833   20240927_Pla… 2024-09-27 06:00:30     1  6.08     0 2024-09-27 MCMI…
##  4 0.167    20240927_Pla… 2024-09-27 06:01:00     1  6.17     0 2024-09-27 MCMI…
##  5 0.191    20240927_Pla… 2024-09-27 06:01:09     1  6.19     0 2024-09-27 MCMI…
##  6 0.25     20240927_Pla… 2024-09-27 06:01:30     1  6.25     0 2024-09-27 MCMI…
##  7 0.331    20240927_Pla… 2024-09-27 06:01:59     1  6.33     0 2024-09-27 MCMI…
##  8 0.333    20240927_Pla… 2024-09-27 06:02:00     1  6.33     0 2024-09-27 MCMI…
##  9 0.417    20240927_Pla… 2024-09-27 06:02:30     1  6.42     0 2024-09-27 MCMI…
## 10 0.428    20240927_Pla… 2024-09-27 06:02:34     1  6.43     0 2024-09-27 MCMI…
## # ℹ 178,093 more rows
## # ℹ 19 more variables: Actinic_par <dbl>, OD680 <dbl>, OD720 <dbl>,
## #   Identifier <chr>, Culture_Present <int>, Nutrient_Present <int>,
## #   Plastic_Present <int>, Temperature_C <int>,
## #   Initial_Plastic_Weight_mg <dbl>, Culture_Volume_mL <int>,
## #   Nutrient_Volume_mL <dbl>, Final_Plastic_Weight_mg <dbl>,
## #   Control_or_Replicate <chr>, WL <chr>, ExpStartDate <date>, …
```
…
## Merge Data with meta data


``` r
#This generates 'NA' values for ~1,000,000 rows of 'O2'; possibly the temperature rows?
TargetDataMeta <- left_join(x = TargetDataWide, y= CultureCatalog, by = c("MC", "Tube"))

TargetDataMeta
```

```
## # A tibble: 178,093 × 27
##        time Filename       Tube abs_time              ToD   Day ExpDate    MC   
##       <dbl> <chr>         <dbl> <dttm>              <dbl> <dbl> <date>     <chr>
##  1 0        20240927_Pla…     1 2024-09-27 06:00:00  6        0 2024-09-27 MCMI…
##  2 0.000278 20240927_Pla…     1 2024-09-27 06:00:00  6.00     0 2024-09-27 MCMI…
##  3 0.0833   20240927_Pla…     1 2024-09-27 06:00:30  6.08     0 2024-09-27 MCMI…
##  4 0.167    20240927_Pla…     1 2024-09-27 06:01:00  6.17     0 2024-09-27 MCMI…
##  5 0.191    20240927_Pla…     1 2024-09-27 06:01:09  6.19     0 2024-09-27 MCMI…
##  6 0.25     20240927_Pla…     1 2024-09-27 06:01:30  6.25     0 2024-09-27 MCMI…
##  7 0.331    20240927_Pla…     1 2024-09-27 06:01:59  6.33     0 2024-09-27 MCMI…
##  8 0.333    20240927_Pla…     1 2024-09-27 06:02:00  6.33     0 2024-09-27 MCMI…
##  9 0.417    20240927_Pla…     1 2024-09-27 06:02:30  6.42     0 2024-09-27 MCMI…
## 10 0.428    20240927_Pla…     1 2024-09-27 06:02:34  6.43     0 2024-09-27 MCMI…
## # ℹ 178,083 more rows
## # ℹ 19 more variables: Actinic_par <dbl>, OD680 <dbl>, OD720 <dbl>,
## #   Identifier <chr>, Culture_Present <int>, Nutrient_Present <int>,
## #   Plastic_Present <int>, Temperature_C <int>,
## #   Initial_Plastic_Weight_mg <dbl>, Culture_Volume_mL <int>,
## #   Nutrient_Volume_mL <dbl>, Final_Plastic_Weight_mg <dbl>,
## #   Control_or_Replicate <chr>, WL <chr>, ExpStartDate <date>, …
```
…
# Yvanna

``` r
data_long<-CultureCatalog%>%
  pivot_longer(cols=c(Initial_Plastic_Weight_mg,Final_Plastic_Weight_mg),names_to = "Weight_Type",values_to = "Weight")
data_long
```

```
## # A tibble: 32 × 18
##    Identifier Culture_Present Nutrient_Present Plastic_Present Temperature_C
##    <chr>                <int>            <int>           <int>         <int>
##  1 CAPL001                  1                1               1            25
##  2 CAPL001                  1                1               1            25
##  3 CAPL002                  1                1               1            25
##  4 CAPL002                  1                1               1            25
##  5 CAPL003                  1                1               1            25
##  6 CAPL003                  1                1               1            25
##  7 CAPL004                  1                1               1            25
##  8 CAPL004                  1                1               1            25
##  9 CAPL005                  1                1               1            25
## 10 CAPL005                  1                1               1            25
## # ℹ 22 more rows
## # ℹ 13 more variables: Culture_Volume_mL <int>, Nutrient_Volume_mL <dbl>,
## #   Control_or_Replicate <chr>, MC <chr>, Tube <int>, WL <chr>,
## #   ExpStartDate <date>, ExpEndDate <dttm>, Project <chr>,
## #   Wall_Growth_RFU <dbl>, Suspension_RFU <dbl>, Weight_Type <chr>,
## #   Weight <dbl>
```
…
